{
    "name": "SceneControl",
    "rootNamespace": "MantaMiddleware.SceneControl",
    "references": [
        "MantaUtilities",
        "Unity.Timeline",
        "EventCaster",
        "UniTask"
    ],
    "includePlatforms": [],
    "excludePlatforms": [],
    "allowUnsafeCode": false,
    "overrideReferences": false,
    "precompiledReferences": [],
    "autoReferenced": true,
    "defineConstraints": [],
    "versionDefines": [],
    "noEngineReferences": false
}